6
[collision]
320,128,64,320,1,null,0,0,NULL
896,128,64,320,1,null,0,0,NULL
320,384,640,64,1,null,0,0,NULL
320,128,640,192,1,null,0,0,NULL
384,320,32,64,2,flatHall,570,780,FLATHALL
864,320,32,64,2,flatStairs,410,300,FLATSTAIRS
